…
    ## Warning: `tbl_df()` was deprecated in dplyr 1.0.0.

    ## Warning: Please use `tibble::as_tibble()` instead.

    ## Joining, by = c("id", "locus", "rank")

``` r
genos_long %>%
  group_by(locus) %>%
  filter(!is.na(allele.balance)) %>%
  summarise(loc_depth = sum(depth)) %>%
  arrange(desc(loc_depth))
```

    ## # A tibble: 140 x 2
    ##    locus               loc_depth
    ##    <chr>                   <int>
    ##  1 CM025826.1_6377992      45544
    ##  2 CM025825.1_76785270     43506
    ##  3 CM025830.1_26009542     38184
    ##  4 CM025825.1_43208600     34437
    ##  5 CM025845.1_12625972     33263
    ##  6 CM025830.1_30507674     30061
    ##  7 CM025825.1_26537970     26924
    ##  8 CM025832.1_27265563     26200
    ##  9 CM025846.1_10099714     25960
    ## 10 CM025842.1_25291879     25699
    ## # ... with 130 more rows
Only 102 loci are in the VCF file.

## Locus evaluation

How many loci and how many alleles?

``` r
# alleles
genos_long %>%
  filter(!is.na(allele)) %>%
  select(locus, allele) %>%
  unique()
```

    ## # A tibble: 349 x 2
    ##    locus               allele                                                   
    ##    <chr>               <chr>                                                    
    ##  1 CM025825.1_24578215 AATG                                                     
    ##  2 CM025825.1_26537970 CCCA                                                     
    ##  3 CM025825.1_43208600 GAGGCTGTCCATGTTCAATCTCGTAGAG                             
    ##  4 CM025825.1_43208600 GAGGCTGTCCATGTTCAATCACGTAGAG                             
    ##  5 CM025825.1_61422707 CCTCACTGCACGGGGGCGCCCTCTGGTTGCAAAAAGAAGTCTGATTGATAGAAGTC~
    ##  6 CM025825.1_76785270 ACGGG                                                    
    ##  7 CM025825.1_7920395  TCCCCCT                                                  
    ##  8 CM025825.1_79461151 TGT                                                      
    ##  9 CM025825.1_79461151 TGG                                                      
    ## 10 CM025826.1_15801073 TTTTTACCTATTA                                            
    ## # ... with 339 more rows

``` r
# loci
genos_long %>%
  filter(!is.na(allele)) %>%
  select(locus, allele) %>%
  unique() %>%
  group_by(locus) %>%
  tally() %>%
  arrange(desc(n))
```

    ## # A tibble: 140 x 2
    ##    locus                   n
    ##    <chr>               <int>
    ##  1 CM025832.1_31942157     7
    ##  2 CM025827.1_13614142     6
    ##  3 CM025847.1_4559639      6
    ##  4 CM025827.1_14090856     5
    ##  5 CM025841.1_24413058     5
    ##  6 CM025842.1_6439981      5
    ##  7 CM025844.1_8337516      5
    ##  8 CM025845.1_23216713     5
    ##  9 CM025848.1_2715863      5
    ## 10 CM025848.1_7382130      5
    ## # ... with 130 more rows
…
    ## Joining, by = "locus"

4 loci with \> 50% missing data. Drop those.

``` r
# summary of remaining loci
genos_locs_filtered %>%
  filter(!is.na(allele)) %>%
  select(locus, allele) %>%
  unique()
```

    ## # A tibble: 334 x 2
    ##    locus               allele                                                   
    ##    <chr>               <chr>                                                    
    ##  1 CM025825.1_24578215 AATG                                                     
    ##  2 CM025825.1_26537970 CCCA                                                     
    ##  3 CM025825.1_43208600 GAGGCTGTCCATGTTCAATCTCGTAGAG                             
    ##  4 CM025825.1_43208600 GAGGCTGTCCATGTTCAATCACGTAGAG                             
    ##  5 CM025825.1_61422707 CCTCACTGCACGGGGGCGCCCTCTGGTTGCAAAAAGAAGTCTGATTGATAGAAGTC~
    ##  6 CM025825.1_76785270 ACGGG                                                    
    ##  7 CM025825.1_7920395  TCCCCCT                                                  
    ##  8 CM025825.1_79461151 TGT                                                      
    ##  9 CM025825.1_79461151 TGG                                                      
    ## 10 CM025826.1_15801073 TTTTTACCTATTA                                            
    ## # ... with 324 more rows

``` r
genos_locs_filtered %>%
  filter(!is.na(allele)) %>%
  select(locus, allele) %>%
  unique() %>%
  group_by(locus) %>%
  tally() %>%
  arrange(desc(n))
```

    ## # A tibble: 130 x 2
    ##    locus                   n
    ##    <chr>               <int>
    ##  1 CM025832.1_31942157     7
    ##  2 CM025827.1_13614142     6
    ##  3 CM025847.1_4559639      6
    ##  4 CM025827.1_14090856     5
    ##  5 CM025841.1_24413058     5
    ##  6 CM025842.1_6439981      5
    ##  7 CM025844.1_8337516      5
    ##  8 CM025845.1_23216713     5
    ##  9 CM025848.1_2715863      5
    ## 10 CM025848.1_7382130      5
    ## # ... with 120 more rows
…
    ## Joining, by = "id"

How many indivs retained?

``` r
genos_locs_ind_filtered %>%
  select(id) %>%
  unique()
```

    ## # A tibble: 82 x 1
    ##    id   
    ##    <chr>
    ##  1 s1   
    ##  2 s10  
    ##  3 s11  
    ##  4 s12  
    ##  5 s13  
    ##  6 s14  
    ##  7 s15  
    ##  8 s16  
    ##  9 s17  
    ## 10 s18  
    ## # ... with 72 more rows
…
    ## Joining, by = c("INDIVIDUALS", "MARKERS")

``` r
df_for_conversion$STRATA <- as.factor(df_for_conversion$STRATA)

# check on NAs here
df_for_conversion %>%
  filter(str_detect(INDIVIDUALS, "s"))
```

    ## # A tibble: 10,660 x 6
    ##    STRATA INDIVIDUALS MARKERS             Sample_ID pop   GT    
    ##    <fct>  <chr>       <chr>               <chr>     <chr> <chr> 
    ##  1 D      s1          CM025825.1_24578215 ABLG670   clean 001001
    ##  2 D      s1          CM025825.1_26537970 ABLG670   clean 001001
    ##  3 D      s1          CM025825.1_43208600 ABLG670   clean 001002
    ##  4 D      s1          CM025825.1_61422707 ABLG670   clean 001001
    ##  5 D      s1          CM025825.1_76785270 ABLG670   clean 001001
    ##  6 D      s1          CM025825.1_7920395  ABLG670   clean 001001
    ##  7 D      s1          CM025825.1_79461151 ABLG670   clean 001002
    ##  8 D      s1          CM025826.1_15801073 ABLG670   clean 001001
    ##  9 D      s1          CM025826.1_22563832 ABLG670   clean 001001
    ## 10 D      s1          CM025826.1_36818699 ABLG670   clean 001001
    ## # ... with 10,650 more rows

``` r
# how many loci in the df for the PCA?
df_for_conversion %>%
  select(MARKERS) %>%
  unique()
```

    ## # A tibble: 130 x 1
    ##    MARKERS            
    ##    <chr>              
    ##  1 CM025825.1_24578215
    ##  2 CM025825.1_26537970
    ##  3 CM025825.1_43208600
    ##  4 CM025825.1_61422707
    ##  5 CM025825.1_76785270
    ##  6 CM025825.1_7920395 
    ##  7 CM025825.1_79461151
    ##  8 CM025826.1_15801073
    ##  9 CM025826.1_22563832
    ## 10 CM025826.1_36818699
    ## # ... with 120 more rows
…
