…
``` r
# and then save that
saveRDS(genos_long_explicit_NAs, file = "../data/processed/called_genos_na_explicit.rds", compress = "xz")
```

``` r
genos_long_explicit_NAs %>%
  group_by(locus) %>%
  filter(!is.na(allele.balance)) %>%
  summarise(loc_depth = sum(depth)) %>%
  arrange(desc(loc_depth))
```

    ## # A tibble: 140 x 2
    ##    locus               loc_depth
    ##    <chr>                   <int>
    ##  1 CM025826.1_6377992     338911
    ##  2 CM025842.1_25291879    250965
    ##  3 CM025830.1_26009542    210885
    ##  4 CM025825.1_43208600    207708
    ##  5 CM025833.1_2596880     196741
    ##  6 CM025834.1_3818587     177467
    ##  7 CM025844.1_11631411    155190
    ##  8 CM025833.1_28093856    144327
    ##  9 CM025825.1_76785270    143547
    ## 10 CM025845.1_12625972    141965
    ## # ... with 130 more rows

## Locus evaluation

How many loci and how many alleles?

``` r
# alleles
genos_long %>%
  filter(!is.na(allele)) %>%
  select(locus, allele) %>%
  unique()
```

    ## # A tibble: 437 x 2
    ##    locus               allele                                                   
    ##    <chr>               <chr>                                                    
    ##  1 CM025825.1_24578215 ATTG                                                     
    ##  2 CM025825.1_26537970 CCCA                                                     
    ##  3 CM025825.1_43208600 GAGGCTGTCCATGTTCAATCTCGTAGAG                             
    ##  4 CM025825.1_43208600 GAGGCTGTCCATGTTCAATCACGTAGAG                             
    ##  5 CM025825.1_61422707 CCTCACTGCACGGGGGCGCCCTCTGGTTGCAAAAAGAAGTCTGATTGATAGAAGTC~
    ##  6 CM025825.1_61422707 CCTCACTGTACGGGGGCGCCCTCTGGTTGCAAAAAGAAGTCTGATTGATAGAAGTC~
    ##  7 CM025825.1_76785270 ACAGG                                                    
    ##  8 CM025825.1_7920395  TCCTCCT                                                  
    ##  9 CM025825.1_7920395  TCCTACT                                                  
    ## 10 CM025825.1_79461151 TGG                                                      
    ## # ... with 427 more rows

``` r
# loci
genos_long %>%
  filter(!is.na(allele)) %>%
  select(locus, allele) %>%
  unique() %>%
  group_by(locus) %>%
  tally() %>%
  arrange(desc(n))
```

    ## # A tibble: 140 x 2
    ##    locus                   n
    ##    <chr>               <int>
    ##  1 CM025832.1_31942157    10
    ##  2 CM025827.1_14090856     9
    ##  3 CM025846.1_17453041     8
    ##  4 CM025832.1_13857363     7
    ##  5 CM025841.1_24413058     7
    ##  6 CM025844.1_8337516      7
    ##  7 CM025847.1_4559639      7
    ##  8 CM025827.1_13614142     6
    ##  9 CM025844.1_11631411     6
    ## 10 CM025844.1_17570547     6
    ## # ... with 130 more rows

437 alleles across 140 loci with between 1-10 alleles per locus.

Missing data:

how many indiv?

``` r
genos_long %>%
  select(gtseq_run, id) %>%
  unique
```

    ## # A tibble: 286 x 2
    ##    gtseq_run id   
    ##    <chr>     <chr>
    ##  1 POPMix    s1   
    ##  2 POPMix    s10  
    ##  3 POPMix    s100 
    ##  4 POPMix    s101 
    ##  5 POPMix    s102 
    ##  6 POPMix    s103 
    ##  7 POPMix    s104 
    ##  8 POPMix    s105 
    ##  9 POPMix    s106 
    ## 10 POPMix    s107 
    ## # ... with 276 more rows
…
    ## Joining, by = "locus"

``` r
# summary of remaining loci
genos_locs_filtered %>%
  filter(!is.na(allele)) %>%
  select(locus, allele) %>%
  unique()
```

    ## # A tibble: 422 x 2
    ##    locus               allele                                                   
    ##    <chr>               <chr>                                                    
    ##  1 CM025825.1_24578215 ATTG                                                     
    ##  2 CM025825.1_26537970 CCCA                                                     
    ##  3 CM025825.1_43208600 GAGGCTGTCCATGTTCAATCTCGTAGAG                             
    ##  4 CM025825.1_43208600 GAGGCTGTCCATGTTCAATCACGTAGAG                             
    ##  5 CM025825.1_61422707 CCTCACTGCACGGGGGCGCCCTCTGGTTGCAAAAAGAAGTCTGATTGATAGAAGTC~
    ##  6 CM025825.1_61422707 CCTCACTGTACGGGGGCGCCCTCTGGTTGCAAAAAGAAGTCTGATTGATAGAAGTC~
    ##  7 CM025825.1_76785270 ACAGG                                                    
    ##  8 CM025825.1_7920395  TCCTCCT                                                  
    ##  9 CM025825.1_7920395  TCCTACT                                                  
    ## 10 CM025825.1_79461151 TGG                                                      
    ## # ... with 412 more rows

``` r
genos_locs_filtered %>%
  filter(!is.na(allele)) %>%
  select(locus, allele) %>%
  unique() %>%
  group_by(locus) %>%
  tally() %>%
  arrange(desc(n))
```

    ## # A tibble: 133 x 2
    ##    locus                   n
    ##    <chr>               <int>
    ##  1 CM025832.1_31942157    10
    ##  2 CM025827.1_14090856     9
    ##  3 CM025846.1_17453041     8
    ##  4 CM025832.1_13857363     7
    ##  5 CM025841.1_24413058     7
    ##  6 CM025844.1_8337516      7
    ##  7 CM025847.1_4559639      7
    ##  8 CM025827.1_13614142     6
    ##  9 CM025844.1_11631411     6
    ## 10 CM025844.1_17570547     6
    ## # ... with 123 more rows

``` r
# QC check
genos_long %>%
  group_by(id, locus) %>% # there should be no more than 2 alleles for a given indiv/locus
  tally() %>%
  filter(n > 2)
```

    ## # A tibble: 13,254 x 3
    ## # Groups:   id [94]
    ##    id    locus                   n
    ##    <chr> <chr>               <int>
    ##  1 s1    CM025825.1_24578215     4
    ##  2 s1    CM025825.1_26537970     4
    ##  3 s1    CM025825.1_43208600     4
    ##  4 s1    CM025825.1_61422707     4
    ##  5 s1    CM025825.1_76785270     4
    ##  6 s1    CM025825.1_7920395      4
    ##  7 s1    CM025825.1_79461151     4
    ##  8 s1    CM025826.1_15801073     4
    ##  9 s1    CM025826.1_22563832     4
    ## 10 s1    CM025826.1_36818699     4
    ## # ... with 13,244 more rows
…
    ## Joining, by = "id"

How many indivs retained?

``` r
genos_locs_ind_filtered %>%
  select(gtseq_run, id) %>%
  unique()
```

    ## # A tibble: 262 x 2
    ##    gtseq_run id   
    ##    <chr>     <chr>
    ##  1 POPMix    s1   
    ##  2 POPMix    s10  
    ##  3 POPMix    s100 
    ##  4 POPMix    s101 
    ##  5 POPMix    s102 
    ##  6 POPMix    s103 
    ##  7 POPMix    s104 
    ##  8 POPMix    s105 
    ##  9 POPMix    s106 
    ## 10 POPMix    s107 
    ## # ... with 252 more rows
…
